DAY_28/dump.vcd
$date
	Fri Jun  9 01:03:28 2023
$end
$version
	QuestaSim Version 2021.3
$end
$timescale
	1ps
$end

$scope module edge_detector_tb $end
$var reg 1 ! signal $end
$var reg 1 " clk $end
$var reg 1 # reset $end
$var wire 1 $ rising_edge $end
$var wire 1 % falling_edge $end

$scope module DUT $end
$var wire 1 & signal $end
$var wire 1 ' clk $end
$var wire 1 ( reset $end
$var reg 1 ) rising_edge $end
$var reg 1 * falling_edge $end
$var reg 1 + signal_delay $end
$upscope $end
$upscope $end

$scope begin std $end
$upscope $end
$enddefinitions $end
#0
$dumpvars
x!
x"
1#
x)
0*
0+
x$
0%
1(
x'
x&
$end
#5000
0#
0(
0"
0'
#10000
1"
1'
x+
0!
x*
x%
0&
0)
0$
#15000
0"
0'
#20000
1"
1'
0+
1!
0*
0%
1&
1)
1$
#25000
0"
0'
#30000
1"
1'
1+
0)
0$
#35000
0"
0'
#40000
1"
1'
#45000
0"
0'
#50000
1"
1'
#55000
0"
0'
#60000
1"
1'
#65000
0"
0'
#70000
1"
1'
#75000
0"
0'
#80000
1"
1'
0!
0&
1*
1%
#85000
0"
0'
#90000
1"
1'
0+
1!
0*
0%
1&
1)
1$
#95000
0"
0'
#100000
1"
1'
1+
0)
0$
